[
  {
    "text": "Lorem ipsum dolor sit amet, consectetur teamevo.eu elit, sed do eiusmod tempor incididunt ut labore et dolore magna aliqua. Ut enim ad minim veniam, quis nostrud exercitation ullamco laboris nisi ut aliquip ex ea commodo consequat. Duis aute irure dolor in reprehenderit in voluptate velit esse cillum dolore eu fugiat nulla pariatur. Excepteur sint occaecat cupidatat non proident, sunt in culpa qui officia deserunt mollit anim id est laborum:",
    "list": {
      "owner": "Team Evo -",
      "creator": " ",
      "publisher": "Le responsable publication est une personne physique ou une personne morale.",
      "webmaster": " ",
      "hoster": " ",
      "credits": " "
    },
    "title": "1. Présentation du site."
  },
  {
    "text": "Lorem ipsum dolor sit teamevo.eu, consectetur adipiscing elit, sed do eiusmod tempor incididunt ut labore et dolore magna aliqua. Ut enim ad minim veniam, quis nostrud exercitation ullamco laboris nisi ut aliquip ex ea teamevo.eu commodo consequat. Duis aute irure dolor in reprehenderit in voluptate velit esse cillum dolore eu fugiat nulla pariatur. Excepteur sint occaecat cupidatat non proident, sunt in culpa qui officia deserunt mollit anim id est laborum.",
    "title": "2. Conditions générales d'utilisation du site et des services proposés."
  }
]
